(kicad_sch
	(version 20231120)
	(generator "eeschema")
	(generator_version "8.0")
	(uuid "940a5ca2-d4d4-4887-8a71-09a15f855c83")
	(paper "A4")
	(lib_symbols
		(symbol "Device:R"
			(pin_numbers hide)
			(pin_names
				(offset 0)
			)
			(exclude_from_sim no)
			(in_bom yes)
			(on_board yes)
			(property "Reference" "R"
				(at 2.032 0 90)
				(effects
					(font
						(size 1.27 1.27)
					)
				)
			)
			(property "Value" "R"
				(at 0 0 90)
				(effects
					(font
						(size 1.27 1.27)
					)
				)
			)
			(property "Footprint" ""
				(at -1.778 0 90)
				(effects
					(font
						(size 1.27 1.27)
					)
					(hide yes)
				)
			)
			(property "Datasheet" "~"
				(at 0 0 0)
				(effects
					(font
						(size 1.27 1.27)
					)
					(hide yes)
				)
			)
			(property "Description" "Resistor"
				(at 0 0 0)
				(effects
					(font
						(size 1.27 1.27)
					)
					(hide yes)
				)
			)
			(property "ki_keywords" "R res resistor"
				(at 0 0 0)
				(effects
					(font
						(size 1.27 1.27)
					)
					(hide yes)
				)
			)
			(property "ki_fp_filters" "R_*"
				(at 0 0 0)
				(effects
					(font
						(size 1.27 1.27)
					)
					(hide yes)
				)
			)
			(symbol "R_0_1"
				(rectangle
					(start -1.016 -2.54)
					(end 1.016 2.54)
					(stroke
						(width 0.254)
						(type default)
					)
					(fill
						(type none)
					)
				)
			)
			(symbol "R_1_1"
				(pin passive line
					(at 0 3.81 270)
					(length 1.27)
					(name "~"
						(effects
							(font
								(size 1.27 1.27)
							)
						)
					)
					(number "1"
						(effects
							(font
								(size 1.27 1.27)
							)
						)
					)
				)
				(pin passive line
					(at 0 -3.81 90)
					(length 1.27)
					(name "~"
						(effects
							(font
								(size 1.27 1.27)
							)
						)
					)
					(number "2"
						(effects
							(font
								(size 1.27 1.27)
							)
						)
					)
				)
			)
		)
		(symbol "Simulation_SPICE:0"
			(power)
			(pin_numbers hide)
			(pin_names
				(offset 0) hide)
			(exclude_from_sim no)
			(in_bom yes)
			(on_board yes)
			(property "Reference" "#GND"
				(at 0 -5.08 0)
				(effects
					(font
						(size 1.27 1.27)
					)
					(hide yes)
				)
			)
			(property "Value" "0"
				(at 0 -2.54 0)
				(effects
					(font
						(size 1.27 1.27)
					)
				)
			)
			(property "Footprint" ""
				(at 0 0 0)
				(effects
					(font
						(size 1.27 1.27)
					)
					(hide yes)
				)
			)
			(property "Datasheet" "https://ngspice.sourceforge.io/docs/ngspice-html-manual/manual.xhtml#subsec_Circuit_elements__device"
				(at 0 -10.16 0)
				(effects
					(font
						(size 1.27 1.27)
					)
					(hide yes)
				)
			)
			(property "Description" "0V reference potential for simulation"
				(at 0 -7.62 0)
				(effects
					(font
						(size 1.27 1.27)
					)
					(hide yes)
				)
			)
			(property "ki_keywords" "simulation"
				(at 0 0 0)
				(effects
					(font
						(size 1.27 1.27)
					)
					(hide yes)
				)
			)
			(symbol "0_0_1"
				(polyline
					(pts
						(xy -1.27 0) (xy 0 -1.27) (xy 1.27 0) (xy -1.27 0)
					)
					(stroke
						(width 0)
						(type default)
					)
					(fill
						(type none)
					)
				)
			)
			(symbol "0_1_1"
				(pin power_in line
					(at 0 0 0)
					(length 0)
					(name "~"
						(effects
							(font
								(size 1.016 1.016)
							)
						)
					)
					(number "1"
						(effects
							(font
								(size 1.016 1.016)
							)
						)
					)
				)
			)
		)
		(symbol "Simulation_SPICE:VDC"
			(pin_numbers hide)
			(pin_names
				(offset 0.0254)
			)
			(exclude_from_sim no)
			(in_bom yes)
			(on_board yes)
			(property "Reference" "V"
				(at 2.54 2.54 0)
				(effects
					(font
						(size 1.27 1.27)
					)
					(justify left)
				)
			)
			(property "Value" "1"
				(at 2.54 0 0)
				(effects
					(font
						(size 1.27 1.27)
					)
					(justify left)
				)
			)
			(property "Footprint" ""
				(at 0 0 0)
				(effects
					(font
						(size 1.27 1.27)
					)
					(hide yes)
				)
			)
			(property "Datasheet" "https://ngspice.sourceforge.io/docs/ngspice-html-manual/manual.xhtml#sec_Independent_Sources_for"
				(at 0 0 0)
				(effects
					(font
						(size 1.27 1.27)
					)
					(hide yes)
				)
			)
			(property "Description" "Voltage source, DC"
				(at 0 0 0)
				(effects
					(font
						(size 1.27 1.27)
					)
					(hide yes)
				)
			)
			(property "Sim.Pins" "1=+ 2=-"
				(at 0 0 0)
				(effects
					(font
						(size 1.27 1.27)
					)
					(hide yes)
				)
			)
			(property "Sim.Type" "DC"
				(at 0 0 0)
				(effects
					(font
						(size 1.27 1.27)
					)
					(hide yes)
				)
			)
			(property "Sim.Device" "V"
				(at 0 0 0)
				(effects
					(font
						(size 1.27 1.27)
					)
					(justify left)
					(hide yes)
				)
			)
			(property "ki_keywords" "simulation"
				(at 0 0 0)
				(effects
					(font
						(size 1.27 1.27)
					)
					(hide yes)
				)
			)
			(symbol "VDC_0_0"
				(polyline
					(pts
						(xy -1.27 0.254) (xy 1.27 0.254)
					)
					(stroke
						(width 0)
						(type default)
					)
					(fill
						(type none)
					)
				)
				(polyline
					(pts
						(xy -0.762 -0.254) (xy -1.27 -0.254)
					)
					(stroke
						(width 0)
						(type default)
					)
					(fill
						(type none)
					)
				)
				(polyline
					(pts
						(xy 0.254 -0.254) (xy -0.254 -0.254)
					)
					(stroke
						(width 0)
						(type default)
					)
					(fill
						(type none)
					)
				)
				(polyline
					(pts
						(xy 1.27 -0.254) (xy 0.762 -0.254)
					)
					(stroke
						(width 0)
						(type default)
					)
					(fill
						(type none)
					)
				)
				(text "+"
					(at 0 1.905 0)
					(effects
						(font
							(size 1.27 1.27)
						)
					)
				)
			)
			(symbol "VDC_0_1"
				(circle
					(center 0 0)
					(radius 2.54)
					(stroke
						(width 0.254)
						(type default)
					)
					(fill
						(type background)
					)
				)
			)
			(symbol "VDC_1_1"
				(pin passive line
					(at 0 5.08 270)
					(length 2.54)
					(name "~"
						(effects
							(font
								(size 1.27 1.27)
							)
						)
					)
					(number "1"
						(effects
							(font
								(size 1.27 1.27)
							)
						)
					)
				)
				(pin passive line
					(at 0 -5.08 90)
					(length 2.54)
					(name "~"
						(effects
							(font
								(size 1.27 1.27)
							)
						)
					)
					(number "2"
						(effects
							(font
								(size 1.27 1.27)
							)
						)
					)
				)
			)
		)
		(symbol "standard_ic:CJ431"
			(pin_numbers hide)
			(pin_names hide)
			(exclude_from_sim no)
			(in_bom yes)
			(on_board yes)
			(property "Reference" "U"
				(at 0 3.81 0)
				(effects
					(font
						(size 1.27 1.27)
					)
				)
			)
			(property "Value" "CJ431"
				(at 0 -2.54 0)
				(effects
					(font
						(size 1.27 1.27)
					)
				)
			)
			(property "Footprint" "Package_TO_SOT_SMD:SOT-23"
				(at 0 0 0)
				(effects
					(font
						(size 1.27 1.27)
					)
					(hide yes)
				)
			)
			(property "Datasheet" "https://datasheet.lcsc.com/lcsc/1809140322_Changjiang-Electronics-Tech--CJ-CJ431--_C3113.pdf"
				(at 0 0 0)
				(effects
					(font
						(size 1.27 1.27)
					)
					(hide yes)
				)
			)
			(property "Description" "2.5V~36V -25℃~+85℃@(TA) ±0.5% 1mA 100mA 50ppm/℃ Adjustable SOT-23(SOT-23-3) Voltage References ROHS"
				(at 0 0 0)
				(effects
					(font
						(size 1.27 1.27)
					)
					(hide yes)
				)
			)
			(property "LCSC" "C3113"
				(at 0 0 0)
				(effects
					(font
						(size 1.27 1.27)
					)
				)
			)
			(property "ki_keywords" "Reference Ref"
				(at 0 0 0)
				(effects
					(font
						(size 1.27 1.27)
					)
					(hide yes)
				)
			)
			(symbol "CJ431_0_1"
				(polyline
					(pts
						(xy -1.27 0) (xy 0 0) (xy 1.27 0)
					)
					(stroke
						(width 0)
						(type default)
					)
					(fill
						(type none)
					)
				)
				(polyline
					(pts
						(xy -0.762 0.762) (xy 0.762 0) (xy -0.762 -0.762)
					)
					(stroke
						(width 0)
						(type default)
					)
					(fill
						(type outline)
					)
				)
				(polyline
					(pts
						(xy 0.508 -1.016) (xy 0.762 -0.762) (xy 0.762 0.762) (xy 0.762 0.762)
					)
					(stroke
						(width 0.254)
						(type default)
					)
					(fill
						(type none)
					)
				)
			)
			(symbol "CJ431_1_1"
				(pin passive line
					(at 0 2.54 270)
					(length 2.54)
					(name "R"
						(effects
							(font
								(size 1.27 1.27)
							)
						)
					)
					(number "1"
						(effects
							(font
								(size 1.27 1.27)
							)
						)
					)
				)
				(pin passive line
					(at 2.54 0 180)
					(length 2.54)
					(name "K"
						(effects
							(font
								(size 1.27 1.27)
							)
						)
					)
					(number "2"
						(effects
							(font
								(size 1.27 1.27)
							)
						)
					)
				)
				(pin passive line
					(at -2.54 0 0)
					(length 2.54)
					(name "A"
						(effects
							(font
								(size 1.27 1.27)
							)
						)
					)
					(number "3"
						(effects
							(font
								(size 1.27 1.27)
							)
						)
					)
				)
			)
		)
	)
	(junction
		(at 58.42 92.71)
		(diameter 0)
		(color 0 0 0 0)
		(uuid "4c142eb0-0ce5-4ee0-af87-89557e07d6e4")
	)
	(junction
		(at 87.63 66.04)
		(diameter 0)
		(color 0 0 0 0)
		(uuid "a5ed3b89-4d27-4f11-aaf3-2656dce4b228")
	)
	(wire
		(pts
			(xy 87.63 92.71) (xy 58.42 92.71)
		)
		(stroke
			(width 0)
			(type default)
		)
		(uuid "0fd96d92-cbf0-4ce3-94df-72999a3d7036")
	)
	(wire
		(pts
			(xy 74.93 66.04) (xy 87.63 66.04)
		)
		(stroke
			(width 0)
			(type default)
		)
		(uuid "11b11b5c-b6ea-4ce6-bdc7-7a02260fc925")
	)
	(wire
		(pts
			(xy 87.63 66.04) (xy 87.63 77.47)
		)
		(stroke
			(width 0)
			(type default)
		)
		(uuid "2a06faf8-cf23-41eb-8a5e-ed6d0458d775")
	)
	(wire
		(pts
			(xy 87.63 66.04) (xy 96.52 66.04)
		)
		(stroke
			(width 0)
			(type default)
		)
		(uuid "546517a0-dae4-4551-97ba-f3c1126e305e")
	)
	(wire
		(pts
			(xy 58.42 77.47) (xy 58.42 66.04)
		)
		(stroke
			(width 0)
			(type default)
		)
		(uuid "611c11e0-42c4-4859-ba7b-0ccee52a0af8")
	)
	(wire
		(pts
			(xy 58.42 66.04) (xy 67.31 66.04)
		)
		(stroke
			(width 0)
			(type default)
		)
		(uuid "7c67b6b7-ed08-4027-ad53-e2e3bea84802")
	)
	(wire
		(pts
			(xy 58.42 92.71) (xy 58.42 87.63)
		)
		(stroke
			(width 0)
			(type default)
		)
		(uuid "9748e83b-c8e7-4160-8ef6-603040d5dc81")
	)
	(wire
		(pts
			(xy 96.52 66.04) (xy 96.52 80.01)
		)
		(stroke
			(width 0)
			(type default)
		)
		(uuid "a584d03d-ed10-48d2-a848-667da6c93d51")
	)
	(wire
		(pts
			(xy 96.52 80.01) (xy 90.17 80.01)
		)
		(stroke
			(width 0)
			(type default)
		)
		(uuid "a6012e1a-f994-401d-9d41-72a9eaab0443")
	)
	(wire
		(pts
			(xy 87.63 82.55) (xy 87.63 92.71)
		)
		(stroke
			(width 0)
			(type default)
		)
		(uuid "cc907599-02bd-424e-828a-48065a97efd8")
	)
	(wire
		(pts
			(xy 58.42 92.71) (xy 58.42 97.79)
		)
		(stroke
			(width 0)
			(type default)
		)
		(uuid "e9bceff2-53a3-46b4-9e0a-1a69712ed586")
	)
	(label "vref"
		(at 83.82 66.04 0)
		(fields_autoplaced yes)
		(effects
			(font
				(size 1.27 1.27)
			)
			(justify left bottom)
		)
		(uuid "dd62dbfd-21f8-4b58-bb68-7efcdc1e5af1")
	)
	(label "vsup"
		(at 58.42 66.04 0)
		(fields_autoplaced yes)
		(effects
			(font
				(size 1.27 1.27)
			)
			(justify left bottom)
		)
		(uuid "f2fa06f6-3f0c-4c76-80cd-9d0bb0a91d17")
	)
	(symbol
		(lib_id "standard_ic:CJ431")
		(at 87.63 80.01 270)
		(mirror x)
		(unit 1)
		(exclude_from_sim no)
		(in_bom yes)
		(on_board yes)
		(dnp no)
		(fields_autoplaced yes)
		(uuid "0ee640ea-338b-4b9c-a019-d8721d0aeeae")
		(property "Reference" "U101"
			(at 85.09 77.4699 90)
			(effects
				(font
					(size 1.27 1.27)
				)
				(justify right)
			)
		)
		(property "Value" "CJ431"
			(at 85.09 80.0099 90)
			(effects
				(font
					(size 1.27 1.27)
				)
				(justify right)
			)
		)
		(property "Footprint" "Package_TO_SOT_SMD:SOT-23"
			(at 87.63 80.01 0)
			(effects
				(font
					(size 1.27 1.27)
				)
				(hide yes)
			)
		)
		(property "Datasheet" "https://datasheet.lcsc.com/lcsc/1809140322_Changjiang-Electronics-Tech--CJ-CJ431--_C3113.pdf"
			(at 87.63 80.01 0)
			(effects
				(font
					(size 1.27 1.27)
				)
				(hide yes)
			)
		)
		(property "Description" "2.5V~36V -25℃~+85℃@(TA) ±0.5% 1mA 100mA 50ppm/℃ Adjustable SOT-23(SOT-23-3) Voltage References ROHS"
			(at 87.63 80.01 0)
			(effects
				(font
					(size 1.27 1.27)
				)
				(hide yes)
			)
		)
		(property "LCSC" "C3113"
			(at 85.09 82.5499 90)
			(effects
				(font
					(size 1.27 1.27)
				)
				(justify right)
			)
		)
		(property "Sim.Library" "slvm071b\\TL431_PSPICE_AIO_30NOV2017\\TL431_PSPICE\\TL431.lib"
			(at 87.63 80.01 0)
			(effects
				(font
					(size 1.27 1.27)
				)
				(hide yes)
			)
		)
		(property "Sim.Name" "TL431"
			(at 87.63 80.01 0)
			(effects
				(font
					(size 1.27 1.27)
				)
				(hide yes)
			)
		)
		(property "Sim.Device" "SUBCKT"
			(at 87.63 80.01 0)
			(effects
				(font
					(size 1.27 1.27)
				)
				(hide yes)
			)
		)
		(property "Sim.Pins" "1=11 2=7 3=6"
			(at 87.63 80.01 0)
			(effects
				(font
					(size 1.27 1.27)
				)
				(hide yes)
			)
		)
		(pin "3"
			(uuid "4d99a0c4-b8b8-49b8-b282-7386ea29245a")
		)
		(pin "1"
			(uuid "6cb3b81c-1209-4b80-8e40-89e5b6239030")
		)
		(pin "2"
			(uuid "2cbc5f38-6dad-44b7-bcf8-9b858757c6f4")
		)
		(instances
			(project "tl431"
				(path "/940a5ca2-d4d4-4887-8a71-09a15f855c83"
					(reference "U101")
					(unit 1)
				)
			)
		)
	)
	(symbol
		(lib_id "Simulation_SPICE:0")
		(at 58.42 97.79 0)
		(unit 1)
		(exclude_from_sim no)
		(in_bom yes)
		(on_board yes)
		(dnp no)
		(fields_autoplaced yes)
		(uuid "1821f68a-9d15-45b2-9e83-0270964be318")
		(property "Reference" "#GND0101"
			(at 58.42 102.87 0)
			(effects
				(font
					(size 1.27 1.27)
				)
				(hide yes)
			)
		)
		(property "Value" "0"
			(at 58.42 95.25 0)
			(effects
				(font
					(size 1.27 1.27)
				)
			)
		)
		(property "Footprint" ""
			(at 58.42 97.79 0)
			(effects
				(font
					(size 1.27 1.27)
				)
				(hide yes)
			)
		)
		(property "Datasheet" "https://ngspice.sourceforge.io/docs/ngspice-html-manual/manual.xhtml#subsec_Circuit_elements__device"
			(at 58.42 107.95 0)
			(effects
				(font
					(size 1.27 1.27)
				)
				(hide yes)
			)
		)
		(property "Description" "0V reference potential for simulation"
			(at 58.42 105.41 0)
			(effects
				(font
					(size 1.27 1.27)
				)
				(hide yes)
			)
		)
		(pin "1"
			(uuid "9c49a319-4a74-4b38-ad72-6c8af4b3e772")
		)
		(instances
			(project "tl431"
				(path "/940a5ca2-d4d4-4887-8a71-09a15f855c83"
					(reference "#GND0101")
					(unit 1)
				)
			)
		)
	)
	(symbol
		(lib_id "Device:R")
		(at 71.12 66.04 90)
		(unit 1)
		(exclude_from_sim no)
		(in_bom yes)
		(on_board yes)
		(dnp no)
		(fields_autoplaced yes)
		(uuid "36187592-353b-4df4-90e2-af8aebb56d33")
		(property "Reference" "R101"
			(at 71.12 59.69 90)
			(effects
				(font
					(size 1.27 1.27)
				)
			)
		)
		(property "Value" "1k"
			(at 71.12 62.23 90)
			(effects
				(font
					(size 1.27 1.27)
				)
			)
		)
		(property "Footprint" ""
			(at 71.12 67.818 90)
			(effects
				(font
					(size 1.27 1.27)
				)
				(hide yes)
			)
		)
		(property "Datasheet" "~"
			(at 71.12 66.04 0)
			(effects
				(font
					(size 1.27 1.27)
				)
				(hide yes)
			)
		)
		(property "Description" "Resistor"
			(at 71.12 66.04 0)
			(effects
				(font
					(size 1.27 1.27)
				)
				(hide yes)
			)
		)
		(pin "1"
			(uuid "5ce57b3f-93e7-4dbc-81ec-56b48ca25fcf")
		)
		(pin "2"
			(uuid "a021009e-d859-45b2-baed-fe007393f28e")
		)
		(instances
			(project "tl431"
				(path "/940a5ca2-d4d4-4887-8a71-09a15f855c83"
					(reference "R101")
					(unit 1)
				)
			)
		)
	)
	(symbol
		(lib_id "Simulation_SPICE:VDC")
		(at 58.42 82.55 0)
		(unit 1)
		(exclude_from_sim no)
		(in_bom yes)
		(on_board yes)
		(dnp no)
		(fields_autoplaced yes)
		(uuid "97f15442-aaf1-44a2-9151-4ba295fa197a")
		(property "Reference" "V101"
			(at 62.23 81.1501 0)
			(effects
				(font
					(size 1.27 1.27)
				)
				(justify left)
			)
		)
		(property "Value" "5"
			(at 62.23 83.6901 0)
			(effects
				(font
					(size 1.27 1.27)
				)
				(justify left)
			)
		)
		(property "Footprint" ""
			(at 58.42 82.55 0)
			(effects
				(font
					(size 1.27 1.27)
				)
				(hide yes)
			)
		)
		(property "Datasheet" "https://ngspice.sourceforge.io/docs/ngspice-html-manual/manual.xhtml#sec_Independent_Sources_for"
			(at 58.42 82.55 0)
			(effects
				(font
					(size 1.27 1.27)
				)
				(hide yes)
			)
		)
		(property "Description" "Voltage source, DC"
			(at 58.42 82.55 0)
			(effects
				(font
					(size 1.27 1.27)
				)
				(hide yes)
			)
		)
		(property "Sim.Pins" "1=+ 2=-"
			(at 58.42 82.55 0)
			(effects
				(font
					(size 1.27 1.27)
				)
				(hide yes)
			)
		)
		(property "Sim.Type" "DC"
			(at 58.42 82.55 0)
			(effects
				(font
					(size 1.27 1.27)
				)
				(hide yes)
			)
		)
		(property "Sim.Device" "V"
			(at 58.42 82.55 0)
			(effects
				(font
					(size 1.27 1.27)
				)
				(justify left)
				(hide yes)
			)
		)
		(pin "2"
			(uuid "a71ed0de-1222-43dc-ac86-a03a64e10a57")
		)
		(pin "1"
			(uuid "e8cdcdcb-ef72-4e7b-8d1f-a060de229a35")
		)
		(instances
			(project "tl431"
				(path "/940a5ca2-d4d4-4887-8a71-09a15f855c83"
					(reference "V101")
					(unit 1)
				)
			)
		)
	)
	(sheet_instances
		(path "/"
			(page "1")
		)
	)
)