(kicad_sch
	(version 20231120)
	(generator "eeschema")
	(generator_version "8.0")
	(uuid "940a5ca2-d4d4-4887-8a71-09a15f855c83")
	(paper "A4")
	(lib_symbols
		(symbol "Device:R"
			(pin_numbers hide)
			(pin_names
				(offset 0)
			)
			(exclude_from_sim no)
			(in_bom yes)
			(on_board yes)
			(property "Reference" "R"
				(at 2.032 0 90)
				(effects
					(font
						(size 1.27 1.27)
					)
				)
			)
			(property "Value" "R"
				(at 0 0 90)
				(effects
					(font
						(size 1.27 1.27)
					)
				)
			)
			(property "Footprint" ""
				(at -1.778 0 90)
				(effects
					(font
						(size 1.27 1.27)
					)
					(hide yes)
				)
			)
			(property "Datasheet" "~"
				(at 0 0 0)
				(effects
					(font
						(size 1.27 1.27)
					)
					(hide yes)
				)
			)
			(property "Description" "Resistor"
				(at 0 0 0)
				(effects
					(font
						(size 1.27 1.27)
					)
					(hide yes)
				)
			)
			(property "ki_keywords" "R res resistor"
				(at 0 0 0)
				(effects
					(font
						(size 1.27 1.27)
					)
					(hide yes)
				)
			)
			(property "ki_fp_filters" "R_*"
				(at 0 0 0)
				(effects
					(font
						(size 1.27 1.27)
					)
					(hide yes)
				)
			)
			(symbol "R_0_1"
				(rectangle
					(start -1.016 -2.54)
					(end 1.016 2.54)
					(stroke
						(width 0.254)
						(type default)
					)
					(fill
						(type none)
					)
				)
			)
			(symbol "R_1_1"
				(pin passive line
					(at 0 3.81 270)
					(length 1.27)
					(name "~"
						(effects
							(font
								(size 1.27 1.27)
							)
						)
					)
					(number "1"
						(effects
							(font
								(size 1.27 1.27)
							)
						)
					)
				)
				(pin passive line
					(at 0 -3.81 90)
					(length 1.27)
					(name "~"
						(effects
							(font
								(size 1.27 1.27)
							)
						)
					)
					(number "2"
						(effects
							(font
								(size 1.27 1.27)
							)
						)
					)
				)
			)
		)
		(symbol "Simulation_SPICE:0"
			(power)
			(pin_numbers hide)
			(pin_names
				(offset 0) hide)
			(exclude_from_sim no)
			(in_bom yes)
			(on_board yes)
			(property "Reference" "#GND"
				(at 0 -5.08 0)
				(effects
					(font
						(size 1.27 1.27)
					)
					(hide yes)
				)
			)
			(property "Value" "0"
				(at 0 -2.54 0)
				(effects
					(font
						(size 1.27 1.27)
					)
				)
			)
			(property "Footprint" ""
				(at 0 0 0)
				(effects
					(font
						(size 1.27 1.27)
					)
					(hide yes)
				)
			)
			(property "Datasheet" "https://ngspice.sourceforge.io/docs/ngspice-html-manual/manual.xhtml#subsec_Circuit_elements__device"
				(at 0 -10.16 0)
				(effects
					(font
						(size 1.27 1.27)
					)
					(hide yes)
				)
			)
			(property "Description" "0V reference potential for simulation"
				(at 0 -7.62 0)
				(effects
					(font
						(size 1.27 1.27)
					)
					(hide yes)
				)
			)
			(property "ki_keywords" "simulation"
				(at 0 0 0)
				(effects
					(font
						(size 1.27 1.27)
					)
					(hide yes)
				)
			)
			(symbol "0_0_1"
				(polyline
					(pts
						(xy -1.27 0) (xy 0 -1.27) (xy 1.27 0) (xy -1.27 0)
					)
					(stroke
						(width 0)
						(type default)
					)
					(fill
						(type none)
					)
				)
			)
			(symbol "0_1_1"
				(pin power_in line
					(at 0 0 0)
					(length 0)
					(name "~"
						(effects
							(font
								(size 1.016 1.016)
							)
						)
					)
					(number "1"
						(effects
							(font
								(size 1.016 1.016)
							)
						)
					)
				)
			)
		)
		(symbol "Simulation_SPICE:PNP"
			(pin_numbers hide)
			(pin_names
				(offset 0)
			)
			(exclude_from_sim no)
			(in_bom yes)
			(on_board yes)
			(property "Reference" "Q"
				(at -2.54 7.62 0)
				(effects
					(font
						(size 1.27 1.27)
					)
				)
			)
			(property "Value" "PNP"
				(at -2.54 5.08 0)
				(effects
					(font
						(size 1.27 1.27)
					)
				)
			)
			(property "Footprint" ""
				(at 35.56 0 0)
				(effects
					(font
						(size 1.27 1.27)
					)
					(hide yes)
				)
			)
			(property "Datasheet" "https://ngspice.sourceforge.io/docs/ngspice-html-manual/manual.xhtml#cha_BJTs"
				(at 35.56 0 0)
				(effects
					(font
						(size 1.27 1.27)
					)
					(hide yes)
				)
			)
			(property "Description" "Bipolar transistor symbol for simulation only, substrate tied to the emitter"
				(at 0 0 0)
				(effects
					(font
						(size 1.27 1.27)
					)
					(hide yes)
				)
			)
			(property "Sim.Device" "PNP"
				(at 0 0 0)
				(effects
					(font
						(size 1.27 1.27)
					)
					(hide yes)
				)
			)
			(property "Sim.Type" "GUMMELPOON"
				(at 0 0 0)
				(effects
					(font
						(size 1.27 1.27)
					)
					(hide yes)
				)
			)
			(property "Sim.Pins" "1=C 2=B 3=E"
				(at 0 0 0)
				(effects
					(font
						(size 1.27 1.27)
					)
					(hide yes)
				)
			)
			(property "ki_keywords" "simulation"
				(at 0 0 0)
				(effects
					(font
						(size 1.27 1.27)
					)
					(hide yes)
				)
			)
			(symbol "PNP_0_1"
				(polyline
					(pts
						(xy -2.54 0) (xy 0.635 0)
					)
					(stroke
						(width 0.1524)
						(type default)
					)
					(fill
						(type none)
					)
				)
				(polyline
					(pts
						(xy 0.635 0.635) (xy 2.54 2.54)
					)
					(stroke
						(width 0)
						(type default)
					)
					(fill
						(type none)
					)
				)
				(polyline
					(pts
						(xy 0.635 -0.635) (xy 2.54 -2.54) (xy 2.54 -2.54)
					)
					(stroke
						(width 0)
						(type default)
					)
					(fill
						(type none)
					)
				)
				(polyline
					(pts
						(xy 0.635 1.905) (xy 0.635 -1.905) (xy 0.635 -1.905)
					)
					(stroke
						(width 0.508)
						(type default)
					)
					(fill
						(type none)
					)
				)
				(polyline
					(pts
						(xy 2.286 -1.778) (xy 1.778 -2.286) (xy 1.27 -1.27) (xy 2.286 -1.778) (xy 2.286 -1.778)
					)
					(stroke
						(width 0)
						(type default)
					)
					(fill
						(type outline)
					)
				)
				(circle
					(center 1.27 0)
					(radius 2.8194)
					(stroke
						(width 0.254)
						(type default)
					)
					(fill
						(type none)
					)
				)
			)
			(symbol "PNP_1_1"
				(pin open_collector line
					(at 2.54 5.08 270)
					(length 2.54)
					(name "C"
						(effects
							(font
								(size 1.27 1.27)
							)
						)
					)
					(number "1"
						(effects
							(font
								(size 1.27 1.27)
							)
						)
					)
				)
				(pin input line
					(at -5.08 0 0)
					(length 2.54)
					(name "B"
						(effects
							(font
								(size 1.27 1.27)
							)
						)
					)
					(number "2"
						(effects
							(font
								(size 1.27 1.27)
							)
						)
					)
				)
				(pin open_emitter line
					(at 2.54 -5.08 90)
					(length 2.54)
					(name "E"
						(effects
							(font
								(size 1.27 1.27)
							)
						)
					)
					(number "3"
						(effects
							(font
								(size 1.27 1.27)
							)
						)
					)
				)
			)
		)
		(symbol "Simulation_SPICE:VDC"
			(pin_numbers hide)
			(pin_names
				(offset 0.0254)
			)
			(exclude_from_sim no)
			(in_bom yes)
			(on_board yes)
			(property "Reference" "V"
				(at 2.54 2.54 0)
				(effects
					(font
						(size 1.27 1.27)
					)
					(justify left)
				)
			)
			(property "Value" "1"
				(at 2.54 0 0)
				(effects
					(font
						(size 1.27 1.27)
					)
					(justify left)
				)
			)
			(property "Footprint" ""
				(at 0 0 0)
				(effects
					(font
						(size 1.27 1.27)
					)
					(hide yes)
				)
			)
			(property "Datasheet" "https://ngspice.sourceforge.io/docs/ngspice-html-manual/manual.xhtml#sec_Independent_Sources_for"
				(at 0 0 0)
				(effects
					(font
						(size 1.27 1.27)
					)
					(hide yes)
				)
			)
			(property "Description" "Voltage source, DC"
				(at 0 0 0)
				(effects
					(font
						(size 1.27 1.27)
					)
					(hide yes)
				)
			)
			(property "Sim.Pins" "1=+ 2=-"
				(at 0 0 0)
				(effects
					(font
						(size 1.27 1.27)
					)
					(hide yes)
				)
			)
			(property "Sim.Type" "DC"
				(at 0 0 0)
				(effects
					(font
						(size 1.27 1.27)
					)
					(hide yes)
				)
			)
			(property "Sim.Device" "V"
				(at 0 0 0)
				(effects
					(font
						(size 1.27 1.27)
					)
					(justify left)
					(hide yes)
				)
			)
			(property "ki_keywords" "simulation"
				(at 0 0 0)
				(effects
					(font
						(size 1.27 1.27)
					)
					(hide yes)
				)
			)
			(symbol "VDC_0_0"
				(polyline
					(pts
						(xy -1.27 0.254) (xy 1.27 0.254)
					)
					(stroke
						(width 0)
						(type default)
					)
					(fill
						(type none)
					)
				)
				(polyline
					(pts
						(xy -0.762 -0.254) (xy -1.27 -0.254)
					)
					(stroke
						(width 0)
						(type default)
					)
					(fill
						(type none)
					)
				)
				(polyline
					(pts
						(xy 0.254 -0.254) (xy -0.254 -0.254)
					)
					(stroke
						(width 0)
						(type default)
					)
					(fill
						(type none)
					)
				)
				(polyline
					(pts
						(xy 1.27 -0.254) (xy 0.762 -0.254)
					)
					(stroke
						(width 0)
						(type default)
					)
					(fill
						(type none)
					)
				)
				(text "+"
					(at 0 1.905 0)
					(effects
						(font
							(size 1.27 1.27)
						)
					)
				)
			)
			(symbol "VDC_0_1"
				(circle
					(center 0 0)
					(radius 2.54)
					(stroke
						(width 0.254)
						(type default)
					)
					(fill
						(type background)
					)
				)
			)
			(symbol "VDC_1_1"
				(pin passive line
					(at 0 5.08 270)
					(length 2.54)
					(name "~"
						(effects
							(font
								(size 1.27 1.27)
							)
						)
					)
					(number "1"
						(effects
							(font
								(size 1.27 1.27)
							)
						)
					)
				)
				(pin passive line
					(at 0 -5.08 90)
					(length 2.54)
					(name "~"
						(effects
							(font
								(size 1.27 1.27)
							)
						)
					)
					(number "2"
						(effects
							(font
								(size 1.27 1.27)
							)
						)
					)
				)
			)
		)
		(symbol "standard_ic:CJ431"
			(pin_numbers hide)
			(pin_names hide)
			(exclude_from_sim no)
			(in_bom yes)
			(on_board yes)
			(property "Reference" "U"
				(at 0 3.81 0)
				(effects
					(font
						(size 1.27 1.27)
					)
				)
			)
			(property "Value" "CJ431"
				(at 0 -2.54 0)
				(effects
					(font
						(size 1.27 1.27)
					)
				)
			)
			(property "Footprint" "Package_TO_SOT_SMD:SOT-23"
				(at 0 0 0)
				(effects
					(font
						(size 1.27 1.27)
					)
					(hide yes)
				)
			)
			(property "Datasheet" "https://datasheet.lcsc.com/lcsc/1809140322_Changjiang-Electronics-Tech--CJ-CJ431--_C3113.pdf"
				(at 0 0 0)
				(effects
					(font
						(size 1.27 1.27)
					)
					(hide yes)
				)
			)
			(property "Description" "2.5V~36V -25℃~+85℃@(TA) ±0.5% 1mA 100mA 50ppm/℃ Adjustable SOT-23(SOT-23-3) Voltage References ROHS"
				(at 0 0 0)
				(effects
					(font
						(size 1.27 1.27)
					)
					(hide yes)
				)
			)
			(property "LCSC" "C3113"
				(at 0 0 0)
				(effects
					(font
						(size 1.27 1.27)
					)
				)
			)
			(property "ki_keywords" "Reference Ref"
				(at 0 0 0)
				(effects
					(font
						(size 1.27 1.27)
					)
					(hide yes)
				)
			)
			(symbol "CJ431_0_1"
				(polyline
					(pts
						(xy -1.27 0) (xy 0 0) (xy 1.27 0)
					)
					(stroke
						(width 0)
						(type default)
					)
					(fill
						(type none)
					)
				)
				(polyline
					(pts
						(xy -0.762 0.762) (xy 0.762 0) (xy -0.762 -0.762)
					)
					(stroke
						(width 0)
						(type default)
					)
					(fill
						(type outline)
					)
				)
				(polyline
					(pts
						(xy 0.508 -1.016) (xy 0.762 -0.762) (xy 0.762 0.762) (xy 0.762 0.762)
					)
					(stroke
						(width 0.254)
						(type default)
					)
					(fill
						(type none)
					)
				)
			)
			(symbol "CJ431_1_1"
				(pin passive line
					(at 0 2.54 270)
					(length 2.54)
					(name "R"
						(effects
							(font
								(size 1.27 1.27)
							)
						)
					)
					(number "1"
						(effects
							(font
								(size 1.27 1.27)
							)
						)
					)
				)
				(pin passive line
					(at 2.54 0 180)
					(length 2.54)
					(name "K"
						(effects
							(font
								(size 1.27 1.27)
							)
						)
					)
					(number "2"
						(effects
							(font
								(size 1.27 1.27)
							)
						)
					)
				)
				(pin passive line
					(at -2.54 0 0)
					(length 2.54)
					(name "A"
						(effects
							(font
								(size 1.27 1.27)
							)
						)
					)
					(number "3"
						(effects
							(font
								(size 1.27 1.27)
							)
						)
					)
				)
			)
		)
	)
	(junction
		(at 129.54 81.28)
		(diameter 0)
		(color 0 0 0 0)
		(uuid "0871d7bd-4144-4df6-ba52-8bb58753449a")
	)
	(junction
		(at 129.54 48.26)
		(diameter 0)
		(color 0 0 0 0)
		(uuid "3c0b25ec-1f98-4e4a-be15-7184a1ec27fb")
	)
	(junction
		(at 115.57 92.71)
		(diameter 0)
		(color 0 0 0 0)
		(uuid "3c6714b6-372b-498d-8ee3-c1a2aa35abe7")
	)
	(junction
		(at 129.54 62.23)
		(diameter 0)
		(color 0 0 0 0)
		(uuid "7c9e58b8-9141-47ad-bdf9-5681889414f4")
	)
	(junction
		(at 92.71 48.26)
		(diameter 0)
		(color 0 0 0 0)
		(uuid "9070e0aa-f45e-4f14-9f30-5a52e3372515")
	)
	(junction
		(at 115.57 48.26)
		(diameter 0)
		(color 0 0 0 0)
		(uuid "92e0d96d-45b2-4d0d-908f-0988f215c763")
	)
	(junction
		(at 115.57 81.28)
		(diameter 0)
		(color 0 0 0 0)
		(uuid "e5ed0afb-98f7-4d36-96e7-a6fa4994d051")
	)
	(wire
		(pts
			(xy 129.54 48.26) (xy 129.54 52.07)
		)
		(stroke
			(width 0)
			(type default)
		)
		(uuid "10cc6d14-04d9-4bc3-ac74-d40462046184")
	)
	(wire
		(pts
			(xy 135.89 81.28) (xy 135.89 80.01)
		)
		(stroke
			(width 0)
			(type default)
		)
		(uuid "19fc113e-b8c6-456c-b363-2dbeab9d0864")
	)
	(wire
		(pts
			(xy 115.57 92.71) (xy 143.51 92.71)
		)
		(stroke
			(width 0)
			(type default)
		)
		(uuid "2cd12bc4-444c-41a8-bab6-26d6e1c6bc7f")
	)
	(wire
		(pts
			(xy 143.51 48.26) (xy 129.54 48.26)
		)
		(stroke
			(width 0)
			(type default)
		)
		(uuid "35966e98-89c2-4f7c-b2d1-ea5a8fc42fbb")
	)
	(wire
		(pts
			(xy 143.51 48.26) (xy 143.51 55.88)
		)
		(stroke
			(width 0)
			(type default)
		)
		(uuid "36084051-926f-49a4-ae75-46aeb72408e7")
	)
	(wire
		(pts
			(xy 58.42 48.26) (xy 92.71 48.26)
		)
		(stroke
			(width 0)
			(type default)
		)
		(uuid "3f294609-fb8d-4b35-829d-69f060d521c0")
	)
	(wire
		(pts
			(xy 115.57 48.26) (xy 115.57 59.69)
		)
		(stroke
			(width 0)
			(type default)
		)
		(uuid "4142792d-bbbc-416b-951f-672a59870e2c")
	)
	(wire
		(pts
			(xy 143.51 63.5) (xy 143.51 74.93)
		)
		(stroke
			(width 0)
			(type default)
		)
		(uuid "49aac033-7028-433d-9597-c7905761686e")
	)
	(wire
		(pts
			(xy 115.57 92.71) (xy 115.57 88.9)
		)
		(stroke
			(width 0)
			(type default)
		)
		(uuid "53373821-e213-4a3b-b19c-08e3e96569d2")
	)
	(wire
		(pts
			(xy 129.54 72.39) (xy 129.54 81.28)
		)
		(stroke
			(width 0)
			(type default)
		)
		(uuid "54a69b67-f9ee-49eb-bb21-abb8bb08e97e")
	)
	(wire
		(pts
			(xy 58.42 48.26) (xy 58.42 77.47)
		)
		(stroke
			(width 0)
			(type default)
		)
		(uuid "6763d0a9-a27b-46bd-a0ed-321d308513ef")
	)
	(wire
		(pts
			(xy 129.54 62.23) (xy 129.54 64.77)
		)
		(stroke
			(width 0)
			(type default)
		)
		(uuid "69293f01-1db6-47b2-b534-09c457fd7468")
	)
	(wire
		(pts
			(xy 92.71 48.26) (xy 92.71 53.34)
		)
		(stroke
			(width 0)
			(type default)
		)
		(uuid "88756a8b-acb1-41ae-b283-3c8bcd78b6a1")
	)
	(wire
		(pts
			(xy 143.51 92.71) (xy 143.51 85.09)
		)
		(stroke
			(width 0)
			(type default)
		)
		(uuid "88bad2c8-fa3d-4f45-84e2-b4005b5f1ca5")
	)
	(wire
		(pts
			(xy 115.57 81.28) (xy 129.54 81.28)
		)
		(stroke
			(width 0)
			(type default)
		)
		(uuid "89d6d60f-87a4-4584-8081-2fe3321fbd68")
	)
	(wire
		(pts
			(xy 58.42 92.71) (xy 115.57 92.71)
		)
		(stroke
			(width 0)
			(type default)
		)
		(uuid "8b414457-f301-436d-a048-20eb0f4ff451")
	)
	(wire
		(pts
			(xy 58.42 92.71) (xy 58.42 87.63)
		)
		(stroke
			(width 0)
			(type default)
		)
		(uuid "9748e83b-c8e7-4160-8ef6-603040d5dc81")
	)
	(wire
		(pts
			(xy 129.54 62.23) (xy 118.11 62.23)
		)
		(stroke
			(width 0)
			(type default)
		)
		(uuid "a4d02304-9e2d-4dae-9928-0caed6f2ff3a")
	)
	(wire
		(pts
			(xy 129.54 59.69) (xy 129.54 62.23)
		)
		(stroke
			(width 0)
			(type default)
		)
		(uuid "ac9dbaa7-8178-449d-b4ed-f430c46343de")
	)
	(wire
		(pts
			(xy 129.54 81.28) (xy 135.89 81.28)
		)
		(stroke
			(width 0)
			(type default)
		)
		(uuid "e794b1cd-e824-468d-a447-e876c7d91268")
	)
	(wire
		(pts
			(xy 92.71 48.26) (xy 115.57 48.26)
		)
		(stroke
			(width 0)
			(type default)
		)
		(uuid "f5ac47c4-9b3f-41ff-875d-af5338826e87")
	)
	(wire
		(pts
			(xy 115.57 48.26) (xy 129.54 48.26)
		)
		(stroke
			(width 0)
			(type default)
		)
		(uuid "f98b791e-8ced-4b42-9744-42e54a513ef5")
	)
	(wire
		(pts
			(xy 115.57 64.77) (xy 115.57 81.28)
		)
		(stroke
			(width 0)
			(type default)
		)
		(uuid "fcb471a3-170b-42e4-a372-a4ae50e99b97")
	)
	(label "vtest"
		(at 118.11 48.26 0)
		(fields_autoplaced yes)
		(effects
			(font
				(size 1.27 1.27)
			)
			(justify left bottom)
		)
		(uuid "2e90ea6a-b528-4eea-b081-ea911f15cc70")
	)
	(symbol
		(lib_id "Simulation_SPICE:PNP")
		(at 140.97 80.01 0)
		(mirror x)
		(unit 1)
		(exclude_from_sim no)
		(in_bom yes)
		(on_board yes)
		(dnp no)
		(fields_autoplaced yes)
		(uuid "1c005b87-6afd-4f5b-a9f5-931b0142207d")
		(property "Reference" "Q101"
			(at 146.05 78.7399 0)
			(effects
				(font
					(size 1.27 1.27)
				)
				(justify left)
			)
		)
		(property "Value" "PNPMMBT5401"
			(at 146.05 81.2799 0)
			(effects
				(font
					(size 1.27 1.27)
				)
				(justify left)
			)
		)
		(property "Footprint" ""
			(at 176.53 80.01 0)
			(effects
				(font
					(size 1.27 1.27)
				)
				(hide yes)
			)
		)
		(property "Datasheet" "https://ngspice.sourceforge.io/docs/ngspice-html-manual/manual.xhtml#cha_BJTs"
			(at 176.53 80.01 0)
			(effects
				(font
					(size 1.27 1.27)
				)
				(hide yes)
			)
		)
		(property "Description" "Bipolar transistor symbol for simulation only, substrate tied to the emitter"
			(at 140.97 80.01 0)
			(effects
				(font
					(size 1.27 1.27)
				)
				(hide yes)
			)
		)
		(property "Sim.Library" "model\\MMBT5401.txt"
			(at 140.97 80.01 0)
			(effects
				(font
					(size 1.27 1.27)
				)
				(hide yes)
			)
		)
		(property "Sim.Name" "MMBT5401"
			(at 140.97 80.01 0)
			(effects
				(font
					(size 1.27 1.27)
				)
				(hide yes)
			)
		)
		(property "Sim.Device" "PNP"
			(at 140.97 80.01 0)
			(effects
				(font
					(size 1.27 1.27)
				)
				(hide yes)
			)
		)
		(property "Sim.Type" "GUMMELPOON"
			(at 140.97 80.01 0)
			(effects
				(font
					(size 1.27 1.27)
				)
				(hide yes)
			)
		)
		(property "Sim.Pins" "1=C 2=B 3=E"
			(at 140.97 80.01 0)
			(effects
				(font
					(size 1.27 1.27)
				)
				(hide yes)
			)
		)
		(pin "1"
			(uuid "8c386a08-5b64-4747-8e67-a8b67600fb5c")
		)
		(pin "2"
			(uuid "d470f464-4eb1-4249-9d17-24f75ec09038")
		)
		(pin "3"
			(uuid "b79a7a13-b642-4a11-94a7-dbf4b74ea3e8")
		)
		(instances
			(project "tl431"
				(path "/940a5ca2-d4d4-4887-8a71-09a15f855c83"
					(reference "Q101")
					(unit 1)
				)
			)
		)
	)
	(symbol
		(lib_id "Device:R")
		(at 129.54 68.58 0)
		(unit 1)
		(exclude_from_sim no)
		(in_bom yes)
		(on_board yes)
		(dnp no)
		(fields_autoplaced yes)
		(uuid "6b29c1b0-89f0-4cf1-98cf-28f22270e0c5")
		(property "Reference" "R103"
			(at 132.08 67.3099 0)
			(effects
				(font
					(size 1.27 1.27)
				)
				(justify left)
			)
		)
		(property "Value" "10k"
			(at 132.08 69.8499 0)
			(effects
				(font
					(size 1.27 1.27)
				)
				(justify left)
			)
		)
		(property "Footprint" ""
			(at 127.762 68.58 90)
			(effects
				(font
					(size 1.27 1.27)
				)
				(hide yes)
			)
		)
		(property "Datasheet" "~"
			(at 129.54 68.58 0)
			(effects
				(font
					(size 1.27 1.27)
				)
				(hide yes)
			)
		)
		(property "Description" "Resistor"
			(at 129.54 68.58 0)
			(effects
				(font
					(size 1.27 1.27)
				)
				(hide yes)
			)
		)
		(pin "2"
			(uuid "9a65df2d-bc48-4173-9227-c860dd76d197")
		)
		(pin "1"
			(uuid "cb7e2dbb-b26f-4ea2-ae4d-c3c996c8be17")
		)
		(instances
			(project "tl431"
				(path "/940a5ca2-d4d4-4887-8a71-09a15f855c83"
					(reference "R103")
					(unit 1)
				)
			)
		)
	)
	(symbol
		(lib_id "standard_ic:CJ431")
		(at 115.57 62.23 270)
		(mirror x)
		(unit 1)
		(exclude_from_sim no)
		(in_bom yes)
		(on_board yes)
		(dnp no)
		(fields_autoplaced yes)
		(uuid "6d986e9d-d9ff-4d3f-b146-3d0c4be65720")
		(property "Reference" "U101"
			(at 113.03 59.6899 90)
			(effects
				(font
					(size 1.27 1.27)
				)
				(justify right)
			)
		)
		(property "Value" "CJ431"
			(at 113.03 62.2299 90)
			(effects
				(font
					(size 1.27 1.27)
				)
				(justify right)
			)
		)
		(property "Footprint" "Package_TO_SOT_SMD:SOT-23"
			(at 115.57 62.23 0)
			(effects
				(font
					(size 1.27 1.27)
				)
				(hide yes)
			)
		)
		(property "Datasheet" "https://datasheet.lcsc.com/lcsc/1809140322_Changjiang-Electronics-Tech--CJ-CJ431--_C3113.pdf"
			(at 115.57 62.23 0)
			(effects
				(font
					(size 1.27 1.27)
				)
				(hide yes)
			)
		)
		(property "Description" "2.5V~36V -25℃~+85℃@(TA) ±0.5% 1mA 100mA 50ppm/℃ Adjustable SOT-23(SOT-23-3) Voltage References ROHS"
			(at 115.57 62.23 0)
			(effects
				(font
					(size 1.27 1.27)
				)
				(hide yes)
			)
		)
		(property "LCSC" "C3113"
			(at 113.03 64.7699 90)
			(effects
				(font
					(size 1.27 1.27)
				)
				(justify right)
			)
		)
		(property "Sim.Library" "model\\AS431.txt"
			(at 115.57 62.23 0)
			(effects
				(font
					(size 1.27 1.27)
				)
				(hide yes)
			)
		)
		(property "Sim.Name" "AS431"
			(at 115.57 62.23 0)
			(effects
				(font
					(size 1.27 1.27)
				)
				(hide yes)
			)
		)
		(property "Sim.Device" "SUBCKT"
			(at 115.57 62.23 0)
			(effects
				(font
					(size 1.27 1.27)
				)
				(hide yes)
			)
		)
		(property "Sim.Pins" "1=REFIN 2=CATHODE 3=ANODE"
			(at 115.57 62.23 0)
			(effects
				(font
					(size 1.27 1.27)
				)
				(hide yes)
			)
		)
		(pin "3"
			(uuid "ef0d4841-bbc0-4590-94df-82e6fb3cc4f1")
		)
		(pin "1"
			(uuid "d85148c0-30c8-4097-94a9-140f6531cfb7")
		)
		(pin "2"
			(uuid "3cc6ba49-fb96-461d-8aed-26464f051d9a")
		)
		(instances
			(project "tl431"
				(path "/940a5ca2-d4d4-4887-8a71-09a15f855c83"
					(reference "U101")
					(unit 1)
				)
			)
		)
	)
	(symbol
		(lib_id "Simulation_SPICE:0")
		(at 92.71 53.34 0)
		(unit 1)
		(exclude_from_sim no)
		(in_bom yes)
		(on_board yes)
		(dnp no)
		(fields_autoplaced yes)
		(uuid "8d92d26c-5eb8-41e4-a703-24050fcd17d8")
		(property "Reference" "#GND0101"
			(at 92.71 58.42 0)
			(effects
				(font
					(size 1.27 1.27)
				)
				(hide yes)
			)
		)
		(property "Value" "0"
			(at 92.71 50.8 0)
			(effects
				(font
					(size 1.27 1.27)
				)
			)
		)
		(property "Footprint" ""
			(at 92.71 53.34 0)
			(effects
				(font
					(size 1.27 1.27)
				)
				(hide yes)
			)
		)
		(property "Datasheet" "https://ngspice.sourceforge.io/docs/ngspice-html-manual/manual.xhtml#subsec_Circuit_elements__device"
			(at 92.71 63.5 0)
			(effects
				(font
					(size 1.27 1.27)
				)
				(hide yes)
			)
		)
		(property "Description" "0V reference potential for simulation"
			(at 92.71 60.96 0)
			(effects
				(font
					(size 1.27 1.27)
				)
				(hide yes)
			)
		)
		(pin "1"
			(uuid "16bb7099-d404-43ad-858a-fbe1db32d333")
		)
		(instances
			(project "tl431"
				(path "/940a5ca2-d4d4-4887-8a71-09a15f855c83"
					(reference "#GND0101")
					(unit 1)
				)
			)
		)
	)
	(symbol
		(lib_id "Simulation_SPICE:VDC")
		(at 58.42 82.55 0)
		(unit 1)
		(exclude_from_sim no)
		(in_bom yes)
		(on_board yes)
		(dnp no)
		(fields_autoplaced yes)
		(uuid "97f15442-aaf1-44a2-9151-4ba295fa197a")
		(property "Reference" "V101"
			(at 62.23 81.1501 0)
			(effects
				(font
					(size 1.27 1.27)
				)
				(justify left)
			)
		)
		(property "Value" "9"
			(at 62.23 83.6901 0)
			(effects
				(font
					(size 1.27 1.27)
				)
				(justify left)
			)
		)
		(property "Footprint" ""
			(at 58.42 82.55 0)
			(effects
				(font
					(size 1.27 1.27)
				)
				(hide yes)
			)
		)
		(property "Datasheet" "https://ngspice.sourceforge.io/docs/ngspice-html-manual/manual.xhtml#sec_Independent_Sources_for"
			(at 58.42 82.55 0)
			(effects
				(font
					(size 1.27 1.27)
				)
				(hide yes)
			)
		)
		(property "Description" "Voltage source, DC"
			(at 58.42 82.55 0)
			(effects
				(font
					(size 1.27 1.27)
				)
				(hide yes)
			)
		)
		(property "Sim.Pins" "1=+ 2=-"
			(at 58.42 82.55 0)
			(effects
				(font
					(size 1.27 1.27)
				)
				(hide yes)
			)
		)
		(property "Sim.Type" "DC"
			(at 58.42 82.55 0)
			(effects
				(font
					(size 1.27 1.27)
				)
				(hide yes)
			)
		)
		(property "Sim.Device" "V"
			(at 58.42 82.55 0)
			(effects
				(font
					(size 1.27 1.27)
				)
				(justify left)
				(hide yes)
			)
		)
		(pin "2"
			(uuid "a71ed0de-1222-43dc-ac86-a03a64e10a57")
		)
		(pin "1"
			(uuid "e8cdcdcb-ef72-4e7b-8d1f-a060de229a35")
		)
		(instances
			(project "tl431"
				(path "/940a5ca2-d4d4-4887-8a71-09a15f855c83"
					(reference "V101")
					(unit 1)
				)
			)
		)
	)
	(symbol
		(lib_id "Device:R")
		(at 115.57 85.09 180)
		(unit 1)
		(exclude_from_sim no)
		(in_bom yes)
		(on_board yes)
		(dnp no)
		(fields_autoplaced yes)
		(uuid "a7fb6dea-1384-4bc5-bc87-a47671ee78be")
		(property "Reference" "R101"
			(at 118.11 83.8199 0)
			(effects
				(font
					(size 1.27 1.27)
				)
				(justify right)
			)
		)
		(property "Value" "4k"
			(at 118.11 86.3599 0)
			(effects
				(font
					(size 1.27 1.27)
				)
				(justify right)
			)
		)
		(property "Footprint" ""
			(at 117.348 85.09 90)
			(effects
				(font
					(size 1.27 1.27)
				)
				(hide yes)
			)
		)
		(property "Datasheet" "~"
			(at 115.57 85.09 0)
			(effects
				(font
					(size 1.27 1.27)
				)
				(hide yes)
			)
		)
		(property "Description" "Resistor"
			(at 115.57 85.09 0)
			(effects
				(font
					(size 1.27 1.27)
				)
				(hide yes)
			)
		)
		(pin "1"
			(uuid "5c78b0b3-68da-4905-a1eb-e66c2d43e0c3")
		)
		(pin "2"
			(uuid "7f793f55-a430-4afd-b055-479a3f2f7cbc")
		)
		(instances
			(project "tl431"
				(path "/940a5ca2-d4d4-4887-8a71-09a15f855c83"
					(reference "R101")
					(unit 1)
				)
			)
		)
	)
	(symbol
		(lib_id "Device:R")
		(at 143.51 59.69 0)
		(unit 1)
		(exclude_from_sim no)
		(in_bom yes)
		(on_board yes)
		(dnp no)
		(fields_autoplaced yes)
		(uuid "df07d5cc-c409-46d7-958d-7ee2c82fc270")
		(property "Reference" "R104"
			(at 146.05 58.4199 0)
			(effects
				(font
					(size 1.27 1.27)
				)
				(justify left)
			)
		)
		(property "Value" "100"
			(at 146.05 60.9599 0)
			(effects
				(font
					(size 1.27 1.27)
				)
				(justify left)
			)
		)
		(property "Footprint" ""
			(at 141.732 59.69 90)
			(effects
				(font
					(size 1.27 1.27)
				)
				(hide yes)
			)
		)
		(property "Datasheet" "~"
			(at 143.51 59.69 0)
			(effects
				(font
					(size 1.27 1.27)
				)
				(hide yes)
			)
		)
		(property "Description" "Resistor"
			(at 143.51 59.69 0)
			(effects
				(font
					(size 1.27 1.27)
				)
				(hide yes)
			)
		)
		(pin "1"
			(uuid "d4e23ff6-af98-4062-b99f-c51b04fbf227")
		)
		(pin "2"
			(uuid "7651b104-ef6b-44ca-9a6b-9225d6ea4b54")
		)
		(instances
			(project "tl431"
				(path "/940a5ca2-d4d4-4887-8a71-09a15f855c83"
					(reference "R104")
					(unit 1)
				)
			)
		)
	)
	(symbol
		(lib_id "Device:R")
		(at 129.54 55.88 0)
		(unit 1)
		(exclude_from_sim no)
		(in_bom yes)
		(on_board yes)
		(dnp no)
		(fields_autoplaced yes)
		(uuid "e04cb0ba-6bbc-4901-963f-fe6a6581bd82")
		(property "Reference" "R102"
			(at 132.08 54.6099 0)
			(effects
				(font
					(size 1.27 1.27)
				)
				(justify left)
			)
		)
		(property "Value" "15k"
			(at 132.08 57.1499 0)
			(effects
				(font
					(size 1.27 1.27)
				)
				(justify left)
			)
		)
		(property "Footprint" ""
			(at 127.762 55.88 90)
			(effects
				(font
					(size 1.27 1.27)
				)
				(hide yes)
			)
		)
		(property "Datasheet" "~"
			(at 129.54 55.88 0)
			(effects
				(font
					(size 1.27 1.27)
				)
				(hide yes)
			)
		)
		(property "Description" "Resistor"
			(at 129.54 55.88 0)
			(effects
				(font
					(size 1.27 1.27)
				)
				(hide yes)
			)
		)
		(pin "2"
			(uuid "83da410f-d715-4c51-a110-29887a048851")
		)
		(pin "1"
			(uuid "cb8d9fcc-5d55-4473-bd9d-09a33ffb4f3d")
		)
		(instances
			(project "tl431"
				(path "/940a5ca2-d4d4-4887-8a71-09a15f855c83"
					(reference "R102")
					(unit 1)
				)
			)
		)
	)
	(sheet_instances
		(path "/"
			(page "1")
		)
	)
)